<?xml version="1.0" encoding="UTF-8" standalone="no"?>
<svg
   sodipodi:docname="add.svg"
   inkscape:version="1.1.1 (3bf5ae0d25, 2021-09-20)"
   version="1.1"
   id="svg2"
   viewBox="0 0 32 32"
   height="32"
   width="32"
   xmlns:inkscape="http://www.inkscape.org/namespaces/inkscape"
   xmlns:sodipodi="http://sodipodi.sourceforge.net/DTD/sodipodi-0.dtd"
   xmlns="http://www.w3.org/2000/svg"
   xmlns:svg="http://www.w3.org/2000/svg"
   xmlns:rdf="http://www.w3.org/1999/02/22-rdf-syntax-ns#"
   xmlns:cc="http://creativecommons.org/ns#"
   xmlns:dc="http://purl.org/dc/elements/1.1/">
  <style
     id="style2" />
  <defs
     id="defs4">
    <pattern
       id="EMFhbasepattern"
       patternUnits="userSpaceOnUse"
       width="6"
       height="6"
       x="0"
       y="0" />
    <pattern
       id="EMFhbasepattern-4"
       patternUnits="userSpaceOnUse"
       width="6"
       height="6"
       x="0"
       y="0" />
    <pattern
       id="EMFhbasepattern-3"
       patternUnits="userSpaceOnUse"
       width="6"
       height="6"
       x="0"
       y="0" />
    <pattern
       id="EMFhbasepattern-8"
       patternUnits="userSpaceOnUse"
       width="6"
       height="6"
       x="0"
       y="0" />
  </defs>
  <sodipodi:namedview
     inkscape:guide-bbox="true"
     showguides="true"
     inkscape:document-rotation="0"
     inkscape:snap-global="true"
     inkscape:snap-bbox-midpoints="true"
     inkscape:snap-bbox-edge-midpoints="true"
     inkscape:bbox-nodes="true"
     inkscape:bbox-paths="true"
     inkscape:snap-bbox="true"
     inkscape:window-maximized="1"
     inkscape:window-y="20"
     inkscape:window-x="1920"
     inkscape:window-height="1007"
     inkscape:window-width="1680"
     units="px"
     showgrid="true"
     inkscape:current-layer="layer1"
     inkscape:document-units="px"
     inkscape:cy="16.40625"
     inkscape:cx="8.6875"
     inkscape:zoom="16"
     inkscape:pageshadow="2"
     inkscape:pageopacity="0.0"
     borderopacity="1.0"
     bordercolor="#666666"
     pagecolor="#ffffff"
     id="base"
     inkscape:pagecheckerboard="0">
    <inkscape:grid
       id="grid3336"
       type="xygrid" />
    <sodipodi:guide
       id="guide883"
       orientation="1,0"
       position="4,10" />
    <sodipodi:guide
       id="guide885"
       orientation="0,-1"
       position="10,12" />
    <sodipodi:guide
       id="guide887"
       orientation="1,0"
       position="12,2" />
    <sodipodi:guide
       id="guide889"
       orientation="0,-1"
       position="14,4" />
  </sodipodi:namedview>
  <g
     transform="translate(0,-1036.3622)"
     id="layer1"
     inkscape:groupmode="layer"
     inkscape:label="Layer 1">
    <g
       id="g5228"
       transform="matrix(2.0092613,0,0,2.0092613,1261.6296,-1327.2884)">
      <path
         id="path846"
         style="color:#000000;font-style:normal;font-variant:normal;font-weight:normal;font-stretch:normal;font-size:medium;line-height:normal;font-family:sans-serif;font-variant-ligatures:normal;font-variant-position:normal;font-variant-caps:normal;font-variant-numeric:normal;font-variant-alternates:normal;font-variant-east-asian:normal;font-feature-settings:normal;font-variation-settings:normal;text-indent:0;text-align:start;text-decoration:none;text-decoration-line:none;text-decoration-style:solid;text-decoration-color:#000000;letter-spacing:normal;word-spacing:normal;text-transform:none;writing-mode:lr-tb;direction:ltr;text-orientation:mixed;dominant-baseline:auto;baseline-shift:baseline;text-anchor:start;white-space:normal;shape-padding:0;shape-margin:0;inline-size:0;clip-rule:nonzero;display:inline;overflow:visible;visibility:visible;opacity:1;isolation:auto;mix-blend-mode:normal;color-interpolation:sRGB;color-interpolation-filters:linearRGB;solid-color:#000000;solid-opacity:1;vector-effect:none;fill:#a0a0a0;fill-opacity:1;fill-rule:evenodd;stroke:none;stroke-width:0.913274px;stroke-linecap:round;stroke-linejoin:miter;stroke-miterlimit:4;stroke-dasharray:none;stroke-dashoffset:0;stroke-opacity:1;color-rendering:auto;image-rendering:auto;shape-rendering:auto;text-rendering:auto;enable-background:accumulate;stop-color:#000000;stop-opacity:1"
         d="m -624.80259,1184.5514 c -0.0763,0.084 -0.11858,0.1934 -0.11861,0.3069 8.3e-4,0.2521 0.20617,0.4558 0.45835,0.4548 l 4.06399,-0.016 0.0158,4.0638 c 8.3e-4,0.2522 0.2062,0.4557 0.45834,0.4548 0.25217,0 0.45581,-0.2062 0.45484,-0.4584 l -0.0158,-4.0638 4.06397,-0.016 c 0.25215,0 0.45576,-0.2063 0.45481,-0.4583 -8.3e-4,-0.2522 -0.20617,-0.4558 -0.45836,-0.4549 l -4.06395,0.016 -0.0158,-4.0638 c -8.3e-4,-0.2521 -0.20621,-0.4557 -0.45833,-0.4547 -0.12838,0 -0.2504,0.056 -0.33617,0.1514 -0.0763,0.084 -0.11858,0.1935 -0.11861,0.3069 l 0.0158,4.0639 -4.06396,0.016 c -0.12836,0 -0.25039,0.056 -0.33618,0.1514 z"
         sodipodi:nodetypes="cccccccccccccccccccc" />
    </g>
  </g>
  <metadata
     id="metadata12">
    <rdf:RDF>
      <rdf:Description
         dc:language="en"
         dc:format="image/svg+xml"
         dc:date="2016-12-14"
         dc:publisher="Iconscout"
         dc:description="Menu, Bar, Lines, Option, List, Hamburger, Web"
         dc:title="Menu, Bar, Lines, Option, List, Hamburger, Web"
         about="https://iconscout.com/legal#licenses">
        <dc:creator>
          <rdf:Bag>
            <rdf:li>Jemis Mali</rdf:li>
          </rdf:Bag>
        </dc:creator>
      </rdf:Description>
      <cc:Work
         rdf:about="">
        <dc:format>image/svg+xml</dc:format>
        <dc:type
           rdf:resource="http://purl.org/dc/dcmitype/StillImage" />
      </cc:Work>
    </rdf:RDF>
  </metadata>
</svg>
